<?xml version="1.0" encoding="utf-8"?>
<!-- Generator: Adobe Illustrator 26.0.1, SVG Export Plug-In . SVG Version: 6.00 Build 0)  -->
<svg version="1.1" id="Warstwa_1" xmlns="http://www.w3.org/2000/svg" xmlns:xlink="http://www.w3.org/1999/xlink" x="0px" y="0px"
	 viewBox="0 0 600 600" style="enable-background:new 0 0 600 600;" xml:space="preserve">
<style type="text/css">
	.st0{clip-path:url(#SVGID_00000036211893061409811770000000670066590851557046_);fill:none;}
	.st1{clip-path:url(#SVGID_00000036211893061409811770000000670066590851557046_);fill:#A8221D;}
	.st2{clip-path:url(#SVGID_00000036211893061409811770000000670066590851557046_);fill:#7B9482;}
	
		.st3{clip-path:url(#SVGID_00000036211893061409811770000000670066590851557046_);fill:url(#SVGID_00000082347322005747794160000004591467221186575546_);}
</style>
<g>
	<defs>
		<rect id="SVGID_1_" x="0" y="-2" width="600" height="604"/>
	</defs>
	<clipPath id="SVGID_00000160907241274834997890000016336502117106182304_">
		<use xlink:href="#SVGID_1_"  style="overflow:visible;"/>
	</clipPath>
	<polygon style="clip-path:url(#SVGID_00000160907241274834997890000016336502117106182304_);fill:none;" points="18.79,191.82 
		-8.45,219.25 -8.45,245.28 18.79,217.85 	"/>
	<polygon style="clip-path:url(#SVGID_00000160907241274834997890000016336502117106182304_);fill:none;" points="18.79,359.05 
		-8.45,386.48 -8.45,406.72 18.79,379.3 	"/>
	<polygon style="clip-path:url(#SVGID_00000160907241274834997890000016336502117106182304_);fill:none;" points="18.79,410.54 
		-8.45,437.97 -8.45,464.01 18.79,436.58 	"/>
	<polygon style="clip-path:url(#SVGID_00000160907241274834997890000016336502117106182304_);fill:none;" points="18.79,249.1 
		-8.45,276.53 -8.45,297.95 18.79,270.52 	"/>
	<polygon style="clip-path:url(#SVGID_00000160907241274834997890000016336502117106182304_);fill:none;" points="18.79,467.83 
		-8.45,495.25 -8.45,515.27 18.79,487.84 	"/>
	<polygon style="clip-path:url(#SVGID_00000160907241274834997890000016336502117106182304_);fill:none;" points="18.79,301.77 
		-8.45,329.2 -8.45,355.23 18.79,327.8 	"/>
	<polygon style="clip-path:url(#SVGID_00000160907241274834997890000016336502117106182304_);fill:none;" points="18.79,140.33 
		-8.45,167.75 -8.45,188 18.79,160.57 	"/>
	<polygon style="clip-path:url(#SVGID_00000160907241274834997890000016336502117106182304_);fill:none;" points="18.79,30.51 
		-8.45,57.94 -8.45,79.22 18.79,51.8 	"/>
	<polygon style="clip-path:url(#SVGID_00000160907241274834997890000016336502117106182304_);fill:none;" points="28.62,574.55 
		-0.43,603.8 -0.43,605.03 18.46,605.03 48.73,574.55 	"/>
	<polygon style="clip-path:url(#SVGID_00000160907241274834997890000016336502117106182304_);fill:none;" points="136.68,574.55 
		106.4,605.03 127.68,605.03 157.96,574.55 	"/>
	<polygon style="clip-path:url(#SVGID_00000160907241274834997890000016336502117106182304_);fill:none;" points="79.77,574.55 
		49.5,605.03 75.36,605.03 105.64,574.55 	"/>
	<polygon style="clip-path:url(#SVGID_00000160907241274834997890000016336502117106182304_);fill:none;" points="189,574.55 
		158.72,605.03 184.58,605.03 214.86,574.55 	"/>
	<polygon style="clip-path:url(#SVGID_00000160907241274834997890000016336502117106182304_);fill:none;" points="584.13,27.51 
		612.14,-0.68 592.02,-0.68 564.02,27.51 	"/>
	<polygon style="clip-path:url(#SVGID_00000160907241274834997890000016336502117106182304_);fill:none;" points="150.98,27.51 
		178.98,-0.68 158.87,-0.68 130.86,27.51 	"/>
	<polygon style="clip-path:url(#SVGID_00000160907241274834997890000016336502117106182304_);fill:none;" points="207.88,27.51 
		235.88,-0.68 210.02,-0.68 182.02,27.51 	"/>
	<polygon style="clip-path:url(#SVGID_00000160907241274834997890000016336502117106182304_);fill:none;" points="476.08,27.51 
		504.08,-0.68 484.2,-0.68 456.2,27.51 	"/>
	<polygon style="clip-path:url(#SVGID_00000160907241274834997890000016336502117106182304_);fill:none;" points="693.35,27.51 
		721.36,-0.68 700.08,-0.68 672.07,27.51 	"/>
	<polygon style="clip-path:url(#SVGID_00000160907241274834997890000016336502117106182304_);fill:none;" points="641.03,27.51 
		669.04,-0.68 643.18,-0.68 615.17,27.51 	"/>
	<polygon style="clip-path:url(#SVGID_00000160907241274834997890000016336502117106182304_);fill:none;" points="18.74,-0.68 
		-8.45,-0.68 -8.45,26.69 	"/>
	<polyline style="clip-path:url(#SVGID_00000160907241274834997890000016336502117106182304_);fill:#A8221D;" points="22.78,26.5 
		50.78,-1.69 19.74,-1.69 -7.45,25.68 -7.45,56.93 19.8,29.5 	"/>
	<polygon style="clip-path:url(#SVGID_00000160907241274834997890000016336502117106182304_);fill:#7B9482;" points="102.97,-1.69 
		71.93,-1.69 19.8,50.79 19.8,50.79 -7.45,78.21 -7.45,109.46 16.06,85.79 16.05,85.87 	"/>
	<polygon style="clip-path:url(#SVGID_00000160907241274834997890000016336502117106182304_);fill:#A8221D;" points="154.85,-1.69 
		123.81,-1.69 96.32,26.28 -12.47,135.5 -12.47,166.74 127.06,26.28 127.06,26.28 	"/>
	<polyline style="clip-path:url(#SVGID_00000160907241274834997890000016336502117106182304_);fill:#7B9482;" points="207.51,-2.2 
		176.47,-2.2 148.78,25.99 -10.96,186.48 -10.96,217.73 180.1,25.78 	"/>
	<polygon style="clip-path:url(#SVGID_00000160907241274834997890000016336502117106182304_);fill:#A8221D;" points="260.4,-2.2 
		229.36,-2.2 201.36,25.99 -14.98,243.77 -14.98,275.01 232.4,25.99 	"/>
	<polygon style="clip-path:url(#SVGID_00000160907241274834997890000016336502117106182304_);fill:#7B9482;" points="310.71,-1.19 
		279.67,-1.19 -17.23,297.47 -16.98,297.47 -16.98,328.69 	"/>
	<polygon style="clip-path:url(#SVGID_00000160907241274834997890000016336502117106182304_);fill:#A8221D;" points="362.53,-2 
		331.49,-2 -22.07,353.92 -22.07,385.16 	"/>
	<polygon style="clip-path:url(#SVGID_00000160907241274834997890000016336502117106182304_);fill:#7B9482;" points="414.75,-2.2 
		383.71,-2.2 -21,405.21 -21,436.46 	"/>
	<polygon style="clip-path:url(#SVGID_00000160907241274834997890000016336502117106182304_);fill:#A8221D;" points="465.14,-1.69 
		434.1,-1.69 -27.52,463 -27.52,494.24 	"/>
	<polygon style="clip-path:url(#SVGID_00000160907241274834997890000016336502117106182304_);fill:#7B9482;" points="516.56,-2.2 
		485.52,-2.2 457.52,25.99 -27.02,513.75 -27.02,545 	"/>
	<polygon style="clip-path:url(#SVGID_00000160907241274834997890000016336502117106182304_);fill:#A8221D;" points="569.45,-2.2 
		538.41,-2.2 -3.78,543.61 -31.03,571.04 -31.03,602.28 -1.98,573.04 	"/>
	<polygon style="clip-path:url(#SVGID_00000160907241274834997890000016336502117106182304_);fill:#7B9482;" points="621.6,-2.2 
		590.56,-2.2 -11.14,603.52 19.9,603.52 	"/>
	<polygon style="clip-path:url(#SVGID_00000160907241274834997890000016336502117106182304_);fill:#A8221D;" points="673.49,-2.2 
		642.45,-2.2 614.45,25.99 40.75,603.52 71.79,603.52 650.72,20.73 	"/>
	<polygon style="clip-path:url(#SVGID_00000160907241274834997890000016336502117106182304_);fill:#7B9482;" points="725.31,-2.7 
		694.27,-2.7 92.56,603.01 123.61,603.01 	"/>
	
		<radialGradient id="SVGID_00000160158299427240138530000002831434557786275755_" cx="20.7297" cy="30.1961" r="0" gradientTransform="matrix(1.0033 0 0 1.01 -2.0067 0.01)" gradientUnits="userSpaceOnUse">
		<stop  offset="0.0721" style="stop-color:#B3864B"/>
		<stop  offset="0.301" style="stop-color:#C4A173"/>
		<stop  offset="0.812" style="stop-color:#EFE5D8"/>
		<stop  offset="1" style="stop-color:#FFFFFF"/>
	</radialGradient>
	
		<path style="clip-path:url(#SVGID_00000160907241274834997890000016336502117106182304_);fill:url(#SVGID_00000160158299427240138530000002831434557786275755_);" d="
		M18.79,30.51"/>
	<polygon style="clip-path:url(#SVGID_00000160907241274834997890000016336502117106182304_);fill:#A8221D;" points="776.74,-2.6 
		745.7,-2.6 717.69,25.59 143.99,603.12 175.03,603.12 753.96,20.33 	"/>
	<polygon style="clip-path:url(#SVGID_00000160907241274834997890000016336502117106182304_);fill:#7B9482;" points="828.55,-3.1 
		797.51,-3.1 195.81,602.61 226.85,602.61 	"/>
	<polygon style="clip-path:url(#SVGID_00000160907241274834997890000016336502117106182304_);fill:#A8221D;" points="879.66,-2.04 
		848.62,-2.04 820.62,26.15 246.92,603.68 277.96,603.68 856.89,20.89 	"/>
	<polygon style="clip-path:url(#SVGID_00000160907241274834997890000016336502117106182304_);fill:#7B9482;" points="931.79,-2.38 
		900.75,-2.38 299.05,603.34 330.09,603.34 	"/>
	<polygon style="clip-path:url(#SVGID_00000160907241274834997890000016336502117106182304_);fill:#A8221D;" points="984.68,-2.38 
		953.64,-2.38 925.64,25.82 351.94,603.34 382.98,603.34 961.91,20.55 	"/>
	<polygon style="clip-path:url(#SVGID_00000160907241274834997890000016336502117106182304_);fill:#7B9482;" points="1036.14,-2.38 
		1005.1,-2.38 403.4,603.33 434.44,603.33 	"/>
	<polygon style="clip-path:url(#SVGID_00000160907241274834997890000016336502117106182304_);fill:#A8221D;" points="1088.03,-2.38 
		1056.99,-2.38 1028.98,25.81 455.28,603.33 486.32,603.33 1065.25,20.54 	"/>
	<polygon style="clip-path:url(#SVGID_00000160907241274834997890000016336502117106182304_);fill:#A8221D;" points="1193.38,-2.38 
		1162.34,-2.38 1134.33,25.81 560.63,603.33 591.67,603.33 1170.6,20.54 	"/>
	<polygon style="clip-path:url(#SVGID_00000160907241274834997890000016336502117106182304_);fill:#7B9482;" points="1140.35,-2.38 
		1109.3,-2.38 507.6,603.33 538.64,603.33 	"/>
</g>
</svg>
