<svg xmlns="http://www.w3.org/2000/svg" width="414" height="720.231" viewBox="0 0 414 720.231">
  <g id="ramka" transform="translate(-1288.112 1825.668)">
    <g id="Layer_6" data-name="Layer 6" transform="translate(1288.112 -1825.668)">
      <g id="Group_1475" data-name="Group 1475" transform="translate(0)">
        <g id="Group_1474" data-name="Group 1474" transform="translate(0)">
          <g id="Group_1473" data-name="Group 1473">
            <g id="Group_1471" data-name="Group 1471" transform="translate(0 295.803)">
              <path id="Path_613" data-name="Path 613" d="M1309.488,973.821v-2.767l-21.376-30.064v30.154l23.9,30.739h23.448l-23.379-28.061Z" transform="translate(-1288.112 -577.454)" fill="#a8221d"/>
              <path id="Path_614" data-name="Path 614" d="M1309.488,464.941l-21.376-30.064V465.03l21.376,30.064Z" transform="translate(-1288.112 -191.956)" fill="#a8221d"/>
              <path id="Path_615" data-name="Path 615" d="M1683.876,1078.752l23.379,28.061H1730.7l-23.378-28.061Z" transform="translate(-1589.559 -682.385)" fill="#a8221d"/>
              <path id="Path_616" data-name="Path 616" d="M2077.439,1078.752l23.378,28.061h23.448l-23.378-28.061Z" transform="translate(-1889.33 -682.385)" fill="#a8221d"/>
              <path id="Path_617" data-name="Path 617" d="M1309.488-41.172l-21.376-30.064v30.154l21.376,30.064Z" transform="translate(-1288.112 193.542)" fill="#a8221d"/>
              <path id="Path_618" data-name="Path 618" d="M2471,1078.752l23.378,28.061h23.448l-23.379-28.061Z" transform="translate(-2189.101 -682.385)" fill="#a8221d"/>
              <path id="Path_619" data-name="Path 619" d="M1309.488-554.382l-21.376-30.064v30.154l21.376,30.064Z" transform="translate(-1288.112 584.447)" fill="#a8221d"/>
              <path id="Path_620" data-name="Path 620" d="M2881.5,1037.327h-16.93l23.378,28.061h14.927v-10.958l-21.376-30.064Z" transform="translate(-2488.873 -640.96)" fill="#a8221d"/>
              <path id="Path_621" data-name="Path 621" d="M2935.606,548.407l21.375,30.064V548.317l-21.375-30.064Z" transform="translate(-2542.982 -255.462)" fill="#a8221d"/>
              <path id="Path_622" data-name="Path 622" d="M2935.606,42.294l21.375,30.064V42.2L2935.606,12.14Z" transform="translate(-2542.982 130.036)" fill="#a8221d"/>
              <path id="Path_623" data-name="Path 623" d="M2935.606-470.917l21.375,30.064v-30.154l-21.375-30.064Z" transform="translate(-2542.982 520.94)" fill="#a8221d"/>
            </g>
            <g id="Group_1472" data-name="Group 1472" transform="translate(0)">
              <path id="Path_624" data-name="Path 624" d="M1487.094,1078.752l23.379,28.061h23.448l-23.379-28.061Z" transform="translate(-1439.674 -386.582)" fill="#7b9482"/>
              <path id="Path_625" data-name="Path 625" d="M1309.488,718l-21.376-30.064v30.154l21.376,30.064Z" transform="translate(-1288.112 -88.901)" fill="#7b9482"/>
              <path id="Path_626" data-name="Path 626" d="M1309.488,211.885l-21.376-30.064v30.154l21.376,30.064Z" transform="translate(-1288.112 296.596)" fill="#7b9482"/>
              <path id="Path_627" data-name="Path 627" d="M1880.658,1078.752l23.378,28.061h23.448l-23.379-28.061Z" transform="translate(-1739.445 -386.582)" fill="#7b9482"/>
              <path id="Path_628" data-name="Path 628" d="M2274.221,1078.752l23.378,28.061h23.448l-23.379-28.061Z" transform="translate(-2039.216 -386.582)" fill="#7b9482"/>
              <path id="Path_629" data-name="Path 629" d="M1309.488-294.228l-21.376-30.064v30.154l21.376,30.064Z" transform="translate(-1288.112 682.095)" fill="#7b9482"/>
              <path id="Path_630" data-name="Path 630" d="M2667.785,1078.752l23.378,28.061h23.448l-23.379-28.061Z" transform="translate(-2338.987 -386.582)" fill="#7b9482"/>
              <path id="Path_631" data-name="Path 631" d="M1309.488-809.213l-21.376-30.064v30.154l21.376,30.064Z" transform="translate(-1288.112 1074.35)" fill="#7b9482"/>
              <path id="Path_632" data-name="Path 632" d="M2935.606,801.464l21.375,30.064V801.374l-21.375-30.064Z" transform="translate(-2542.982 -152.408)" fill="#7b9482"/>
              <path id="Path_633" data-name="Path 633" d="M2935.606,295.351l21.375,30.064V295.261L2935.606,265.2Z" transform="translate(-2542.982 233.09)" fill="#7b9482"/>
              <path id="Path_634" data-name="Path 634" d="M2935.606-210.762l21.375,30.064v-30.154l-21.375-30.064Z" transform="translate(-2542.982 618.588)" fill="#7b9482"/>
              <path id="Path_635" data-name="Path 635" d="M2935.606-725.748l21.375,30.064v-30.154L2935.606-755.9Z" transform="translate(-2542.982 1010.844)" fill="#7b9482"/>
              <path id="Path_636" data-name="Path 636" d="M1309.488-1342.57l-21.376-30.064v30.154l21.376,30.064Z" transform="translate(-1288.112 1480.6)" fill="#7b9482"/>
              <path id="Path_637" data-name="Path 637" d="M2935.606-1259.1l21.375,30.064v-30.154l-21.375-30.064Z" transform="translate(-2542.982 1417.093)" fill="#7b9482"/>
              <path id="Path_638" data-name="Path 638" d="M1309.488-1797.607h15.9l-23.378-28.061h-13.9v12.28l21.376,30.064Z" transform="translate(-1288.112 1825.668)" fill="#7b9482"/>
              <path id="Path_639" data-name="Path 639" d="M1688.432-1797.607l-23.379-28.061h-23.448l23.378,28.061Z" transform="translate(-1557.363 1825.668)" fill="#7b9482"/>
              <path id="Path_640" data-name="Path 640" d="M2082-1797.607l-23.378-28.061H2035.17l23.379,28.061Z" transform="translate(-1857.134 1825.668)" fill="#7b9482"/>
              <path id="Path_641" data-name="Path 641" d="M2475.56-1797.607l-23.379-28.061h-23.448l23.378,28.061Z" transform="translate(-2156.905 1825.668)" fill="#7b9482"/>
              <path id="Path_642" data-name="Path 642" d="M2822.3-1825.668l23.379,28.061h3.625v4.089l21.376,30.064v-30.154l-24.931-32.061Z" transform="translate(-2456.676 1825.668)" fill="#7b9482"/>
              <path id="Path_643" data-name="Path 643" d="M1309.488-1082.416l-21.376-30.064v30.154l21.376,30.064Z" transform="translate(-1288.112 1282.444)" fill="#a8221d"/>
              <path id="Path_644" data-name="Path 644" d="M1309.488-1597.4l-21.376-30.064v30.154l21.376,30.064Z" transform="translate(-1288.112 1674.7)" fill="#a8221d"/>
              <path id="Path_645" data-name="Path 645" d="M2935.606-998.95l21.375,30.064V-999.04l-21.375-30.064Z" transform="translate(-2542.982 1218.938)" fill="#a8221d"/>
              <path id="Path_646" data-name="Path 646" d="M2935.606-1513.935l21.375,30.064v-30.154l-21.375-30.064Z" transform="translate(-2542.982 1611.194)" fill="#a8221d"/>
              <path id="Path_647" data-name="Path 647" d="M1491.651-1797.607l-23.379-28.061h-23.448l23.378,28.061Z" transform="translate(-1407.477 1825.668)" fill="#a8221d"/>
              <path id="Path_648" data-name="Path 648" d="M1885.214-1797.607l-23.378-28.061h-23.448l23.379,28.061Z" transform="translate(-1707.248 1825.668)" fill="#a8221d"/>
              <path id="Path_649" data-name="Path 649" d="M2278.778-1797.607l-23.379-28.061h-23.448l23.378,28.061Z" transform="translate(-2007.019 1825.668)" fill="#a8221d"/>
              <path id="Path_650" data-name="Path 650" d="M2672.341-1797.607l-23.379-28.061h-23.448l23.378,28.061Z" transform="translate(-2306.79 1825.668)" fill="#a8221d"/>
            </g>
          </g>
        </g>
      </g>
    </g>
  </g>
</svg>
