<svg xmlns="http://www.w3.org/2000/svg" width="36.186" height="33.163" viewBox="0 0 36.186 33.163">
  <g id="Group_1491" data-name="Group 1491" transform="translate(-12620 465.5)">
    <path id="Path_602" data-name="Path 602" d="M12439.381-539.561l5.24,4.883,5.24-4.883" transform="translate(193.309 92.525)" fill="none" stroke="#fff" stroke-width="2"/>
    <line id="Line_2" data-name="Line 2" y2="23.394" transform="translate(12637.943 -465.5)" fill="none" stroke="#fff" stroke-width="2"/>
    <path id="Path_604" data-name="Path 604" d="M12621-449.5v23.459h34.186V-449.5" transform="translate(0 -7.295)" fill="none" stroke="#fff" stroke-width="2"/>
  </g>
</svg>
